{
    "coc.preferences.formatOnSaveFiletypes": [
        "python",
        "json"
    ],
    "python.pythonPath": "/usr/bin/python3",
    "python.jediEnabled": true,
    "coc.preferences.jumpCommand": "drop",
    "json.enable": true,
    "json.format.enable": true,
    "python.formatting.provider": "black",
    "python.linting.pylintEnabled": true,
    "python.linting.enabled": true,
    "python.linting.pylintUseMinimalCheckers": false,
    "python.linting.pylintPath": "/home/edoardo/.local/bin/pylint"
}
